Référence commande,Nom et Prénom du destinataire*,Téléphone*,Téléphone 2,Produit*,Montant du colis*,Wilaya de livraison,Code wilaya*,Commune de livraison*,Adresse de livraison*,STOP DESK,Poids (kg),FRAGILE,Remarque,ECHANGE,PICK UP,RECOUVREMENT,Lien map,Date de commande,Statut de commande,Mode de paiement,Statut de paiement,Nom du livreur,Suivi du colis,Email client,Canal d’acquisition,Date de livraison prévue,Date de livraison effective,Retour / Remboursement,Observations client
CMD1234,Jean Dupont,0612345678,0654321987,Smartphone,25000,Alger,16,El Madania,Rue 12,,1.2,OUI,"À livrer avant samedi",OUI,,OUI,https://goo.gl/maps/Xyz,2025-02-17,En attente,Espèces,Impayé,Ali Express,TRK1234567,jean.dupont@email.com,Facebook,2025-02-20,,"",RAS
CMD1235,Sarah Lounis,0778899000,0781122334,Laptop,120000,Oran,31,Es Senia,Cité 200 logements,,2.5,,Livrer après 18h,,,OUI,https://goo.gl/maps/Abc,2025-02-16,Expédiée,Virement,Paid,Omar Deliver,TRK9876543,sarah.lounis@email.com,Instagram,2025-02-19,2025-02-19,"","Client satisfait"
CMD1236,Kamel Benali,0556677889,,Casque Bluetooth,8000,Constantine,25,Coudiat,Avenue principale,OUI,0.5,,Attention fragile,,OUI,OUI,https://goo.gl/maps/Def,2025-02-15,Livrée,PayPal,Paid,Express Logistics,TRK5678912,kamel.benali@email.com,Site web,2025-02-18,2025-02-18,Demande retour,"Produit endommagé"

