2025-03-03 03:07:16 [INFO] Début du processus de création du modèle LXD.
2025-03-03 03:07:16 [INFO] Recherche de l'image dans le dépôt officiel...
2025-03-03 03:07:16 [ERROR] ❌ ERREUR : Image alpine/3.20/cloud non trouvée ni localement ni dans le dépôt officiel.
2025-03-03 03:07:50 [INFO] Début du processus de création du modèle LXD.
2025-03-03 03:07:50 [INFO] Recherche de l'image dans le dépôt officiel...
2025-03-03 03:07:50 [ERROR] ❌ ERREUR : Image alpine/3.20/cloud non trouvée ni localement ni dans le dépôt officiel.
2025-03-03 03:08:29 [INFO] Début du processus de création du modèle LXD.
2025-03-03 03:08:29 [INFO] Recherche de l'image dans le dépôt officiel...
2025-03-03 03:08:29 [ERROR] ❌ ERREUR : Image alpine/3.20/cloud non trouvée ni localement ni dans le dépôt officiel.
