{
    "startup": "athena",
    "phases": [
        {"phase": "MVP", "description": "Développement du produit minimum viable"},
        {"phase": "Lancement", "description": "Mise en production et marketing"},
        {"phase": "Expansion", "description": "Ajout de nouvelles fonctionnalités"}
    ]
}
