{
  "meta": {
    "version": "2.0",
    "last_updated": "2025-03-08T12:00:00Z",
    "author": "Admin",
    "description": "Configuration centralisée des tâches cron pour les serveurs."
  },
  "tasks": [
    {
      "id": "backup_daily",
      "uuid": "550e8400-e29b-41d4-a716-446655440000",
      "enabled": true,
      "schedule": "0 2 * * *",
      "command": "/home/user/backup.sh",
      "description": "Sauvegarde quotidienne du serveur à 2h du matin.",
      "category": "backup",
      "priority": "high",
      "notify": {
        "email": "admin@example.com",
        "webhook": "https://hooks.example.com/cron-notify"
      }
    },
    {
      "id": "cleanup_logs",
      "uuid": "550e8400-e29b-41d4-a716-446655440001",
      "enabled": true,
      "schedule": "0 0 * * 0",
      "command": "/home/user/cleanup_logs.sh",
      "description": "Nettoyage hebdomadaire des logs chaque dimanche à minuit.",
      "category": "maintenance",
      "priority": "medium",
      "notify": {
        "email": "admin@example.com"
      }
    },
    {
      "id": "sync_git",
      "uuid": "550e8400-e29b-41d4-a716-446655440002",
      "enabled": true,
      "schedule": "*/30 * * * *",
      "command": "/home/user/git_sync.sh",
      "description": "Synchronisation Git toutes les 30 minutes.",
      "category": "sync",
      "priority": "low"
    },
    {
      "id": "restart_services",
      "uuid": "550e8400-e29b-41d4-a716-446655440003",
      "enabled": false,
      "schedule": "0 3 * * *",
      "command": "/home/user/restart_services.sh",
      "description": "Redémarrage des services critiques à 3h du matin.",
      "category": "maintenance",
      "priority": "high"
    }
  ]
}
