{
  "modules": [
    {
      "name": "ubuntu",
      "category": "SUPPORTED_OS",
      "description": "Popular Linux distribution based on Debian, known for its ease of use and large community support.",
      "install_command": "zsh $CALPINEPATH/src/zsh/ubuntu.zsh",
      "included": true,
      "dependencies": [],
      "features": ["LTS support", "Large package repository", "Enterprise-ready"],
      "documentation": "Ubuntu is a user-friendly Linux distribution suitable for desktop and server use."
    },
    {
      "name": "debian",
      "category": "SUPPORTED_OS",
      "description": "Stable and versatile Linux distribution used as a base for many others.",
      "install_command": "zsh $CALPINEPATH/src/zsh/debian.zsh",
      "included": true,
      "dependencies": [],
      "features": ["Rock-solid stability", "Vast package repository", "Security-focused"],
      "documentation": "Debian is a widely used Linux distribution known for its stability and robustness."
    },
    {
      "name": "arch",
      "category": "SUPPORTED_OS",
      "description": "Lightweight and flexible Linux distribution following a rolling release model.",
      "install_command": "zsh $CALPINEPATH/src/zsh/arch.zsh",
      "included": true,
      "dependencies": [],
      "features": ["Rolling release", "Highly customizable", "Minimalist design"],
      "documentation": "Arch Linux is a simple, lightweight, and flexible Linux distribution."
    },
    {
      "name": "fedora",
      "category": "SUPPORTED_OS",
      "description": "Cutting-edge Linux distribution sponsored by Red Hat, known for innovation.",
      "install_command": "zsh $CALPINEPATH/src/zsh/fedora.zsh",
      "included": true,
      "dependencies": [],
      "features": ["Latest software", "Strong security", "Backed by Red Hat"],
      "documentation": "Fedora is an innovative Linux distribution that frequently introduces new technologies."
    },
    {
      "name": "alpine",
      "category": "SUPPORTED_OS",
      "description": "Security-focused, lightweight Linux distribution popular for containers.",
      "install_command": "zsh $CALPINEPATH/src/zsh/alpine.zsh",
      "included": true,
      "dependencies": [],
      "features": ["Small footprint", "Security-oriented", "Fast package management"],
      "documentation": "Alpine Linux is a security-focused, lightweight Linux distribution."
    },
    {
      "name": "opensuse",
      "category": "SUPPORTED_OS",
      "description": "User-friendly and enterprise-grade Linux distribution backed by SUSE.",
      "install_command": "zsh $CALPINEPATH/src/zsh/opensuse.zsh",
      "included": true,
      "dependencies": [],
      "features": ["YaST configuration", "Enterprise-ready", "Rolling release option"],
      "documentation": "openSUSE is a Linux distribution known for its flexibility and powerful administration tools."
    },
    {
      "name": "proxmox",
      "category": "SUPPORTED_OS",
      "description": "Debian-based virtualization platform for running virtual machines and containers.",
      "install_command": "zsh $CALPINEPATH/src/zsh/proxmox.zsh",
      "included": true,
      "dependencies": [],
      "features": ["Virtualization support", "High availability", "ZFS integration"],
      "documentation": "Proxmox is a complete open-source server management platform for virtualization."
    },
    {
      "name": "openwrt",
      "category": "SUPPORTED_OS",
      "description": "Linux-based operating system for embedded devices, particularly routers.",
      "install_command": "zsh $CALPINEPATH/src/zsh/openwrt.zsh",
      "included": true,
      "dependencies": [],
      "features": ["Router optimization", "Custom firmware", "Security-focused"],
      "documentation": "OpenWRT is an open-source firmware for routers and other network devices."
    },
    {
      "name": "pfsense",
      "category": "SUPPORTED_OS",
      "description": "Firewall and router distribution based on FreeBSD.",
      "install_command": "zsh $CALPINEPATH/src/zsh/pfsense.zsh",
      "included": true,
      "dependencies": [],
      "features": ["Advanced firewall", "VPN support", "Web-based management"],
      "documentation": "pfSense is a FreeBSD-based firewall and router platform."
    },
    {
      "name": "android",
      "category": "SUPPORTED_OS",
      "description": "Mobile operating system developed by Google, based on a modified Linux kernel.",
      "install_command": "zsh $CALPINEPATH/src/zsh/android.zsh",
      "included": true,
      "dependencies": [],
      "features": ["Mobile-first", "App ecosystem", "Google services integration"],
      "documentation": "Android is a mobile operating system widely used in smartphones and tablets."
    },
    {
      "name": "windows",
      "category": "SUPPORTED_OS",
      "description": "Microsoft's proprietary operating system used in desktops and servers.",
      "install_command": "zsh $CALPINEPATH/src/zsh/windows.zsh",
      "included": true,
      "dependencies": [],
      "features": ["User-friendly", "Gaming support", "Enterprise features"],
      "documentation": "Windows is a widely used desktop operating system by Microsoft."
    },
    {
      "name": "macos",
      "category": "SUPPORTED_OS",
      "description": "Apple's UNIX-based operating system for Mac computers.",
      "install_command": "zsh $CALPINEPATH/src/zsh/macos.zsh",
      "included": true,
      "dependencies": [],
      "features": ["Optimized for Mac", "Secure and stable", "Seamless Apple ecosystem integration"],
      "documentation": "macOS is Apple's operating system designed for Mac computers."
    }
  ]
}

