{
    "startup": "zerozone",
    "description": "Description détaillée du projet zerozone.",
    "objectives": ["Décentralisation", "Sécurité", "Transparence"],
    "technologies": ["Blockchain", "IPFS", "Smart Contracts"]
}
